TF0060DCA/testsuite/system/test_load.vcd
$date
	Sun Jan  5 12:50:45 2025
$end
$version
	Icarus Verilog
$end
$timescale
	1ps
$end
$scope module test_load $end
$var wire 1 ! SCLK $end
$var reg 2 " CLK [1:2] $end
$var reg 1 # CLK100M $end
$var reg 1 $ CLK14M $end
$var reg 1 % CLK16M $end
$var reg 1 & CLK20M $end
$var reg 1 ' CLK21M $end
$var reg 1 ( CLK25M $end
$var reg 1 ) CLK33M $end
$var reg 1 * CLK35M $end
$var reg 1 + CLK40M $end
$var reg 1 , CLK50M $end
$var reg 1 - CLK55M $end
$var reg 1 . CLK62M $end
$var reg 1 / CLK71M $end
$var reg 1 0 CLK7M $end
$var reg 8 1 SD [7:0] $end
$var integer 32 2 delay_count [31:0] $end
$scope module UUT $end
$var wire 2 3 CLK [2:1] $end
$var wire 1 0 CLKOUT $end
$var wire 8 4 SD [7:0] $end
$var wire 1 ! SCLK $end
$var wire 1 5 DI $end
$var reg 1 6 CLK12M $end
$var reg 1 7 LOAD_SHIFT $end
$var reg 8 8 _ch1_data [7:0] $end
$var reg 8 9 _ch2_data [7:0] $end
$var reg 7 : counter [6:0] $end
$var reg 9 ; shift_reg [8:0] $end
$upscope $end
$scope task assert $end
$var reg 32 < actual [31:0] $end
$var reg 32 = expected [31:0] $end
$upscope $end
$scope task assert_less_than $end
$var reg 32 > first [31:0] $end
$var reg 32 ? second [31:0] $end
$upscope $end
$scope task assert_more_than $end
$var reg 32 @ first [31:0] $end
$var reg 32 A second [31:0] $end
$upscope $end
$scope task assertexactly $end
$var reg 32 B actual [31:0] $end
$var reg 32 C expected [31:0] $end
$upscope $end
$scope task randomdelay $end
$var reg 32 D delay [31:0] $end
$upscope $end
$scope task setch $end
$var reg 2 E ch [2:1] $end
$var reg 8 F val [7:0] $end
$upscope $end
$upscope $end
$enddefinitions $end
#0
$dumpvars
bx F
bx E
bx D
bx C
bx B
bx A
bx @
bx ?
bx >
bx =
bx <
b0 ;
b0 :
b0 9
b0 8
17
06
05
b11111111 4
b11 3
bx 2
b11111111 1
00
0/
0.
0-
0,
0+
0*
0)
0(
0'
0&
0%
0$
0#
b11 "
0!
$end
#5000
1#
#7000
1/
#8000
1.
#9000
1-
#10000
0#
1,
#13000
1+
#14000
0/
1*
#15000
1#
#16000
0.
1)
#18000
0-
#20000
0#
0,
1(
#21000
1/
#23000
1'
#24000
1.
#25000
1#
1&
#26000
0+
#27000
1-
#28000
0/
0*
#30000
0#
1,
#32000
0.
0)
1%
#35000
1#
1/
1$
#36000
0-
#39000
1+
#40000
0#
1.
0,
0(
#42000
0/
1*
#45000
1#
1-
#46000
0'
#48000
0.
1)
#49000
1/
#50000
0#
1,
0&
#52000
0+
#54000
0-
#55000
1#
#56000
0/
1.
0*
#60000
0#
0,
1(
#63000
1/
1-
#64000
0.
0)
0%
#65000
1#
1+
#69000
1'
#70000
0#
0/
1,
1*
0$
#71000
1!
b1 :
10
#72000
1.
0-
#75000
1#
1&
#77000
1/
#78000
0+
#80000
0#
0.
0,
1)
0(
#81000
1-
#84000
0/
0*
#85000
1#
#88000
1.
#90000
0#
0-
1,
#91000
1/
1+
#92000
0'
#95000
1#
#96000
0.
0)
1%
#98000
0/
1*
#99000
1-
#100000
0#
0,
1(
0&
#104000
1.
0+
#105000
1#
1/
1$
#108000
0-
#110000
0#
1,
#112000
0/
0.
0*
1)
#115000
1#
1'
#117000
1-
1+
#119000
1/
#120000
0#
1.
0,
0(
#125000
1#
1&
#126000
0/
0-
1*
#128000
0.
0)
0%
#130000
0#
1,
0+
#133000
1/
#135000
1#
1-
#136000
1.
#138000
0'
#140000
0#
0/
0,
0*
1(
0$
#142000
00
#143000
1+
#144000
0.
0-
1)
#145000
1#
#147000
1/
#150000
0#
1,
0&
#152000
1.
#153000
1-
#154000
0/
1*
#155000
1#
#156000
0+
#160000
0#
0.
0,
0)
0(
1%
#161000
1/
1'
#162000
0-
#165000
1#
#168000
0/
1.
0*
#169000
1+
#170000
0#
1,
#171000
1-
#175000
1#
1/
1&
1$
#176000
0.
1)
#180000
0#
0-
0,
1(
#182000
0/
0+
1*
#184000
1.
0'
#185000
1#
#189000
1/
1-
#190000
0#
1,
#192000
0.
0)
0%
#195000
1#
1+
#196000
0/
0*
#198000
0-
#200000
0#
1.
0,
0(
0&
#203000
1/
#205000
1#
#207000
1-
1'
#208000
0.
0+
1)
#210000
0#
0/
1,
1*
0$
#213000
0!
b1 ;
b10 :
10
#215000
1#
#216000
1.
0-
#217000
1/
#220000
0#
0,
1(
#221000
1+
#224000
0/
0.
0*
0)
1%
#225000
1#
1-
1&
#230000
0#
1,
0'
#231000
1/
#232000
1.
#234000
0-
0+
#235000
1#
#238000
0/
1*
#240000
0#
0.
0,
1)
0(
#243000
1-
#245000
1#
1/
1$
#247000
1+
#248000
1.
#250000
0#
1,
0&
#252000
0/
0-
0*
#253000
1'
#255000
1#
#256000
0.
0)
0%
#259000
1/
#260000
0#
0,
0+
1(
#261000
1-
#264000
1.
#265000
1#
#266000
0/
1*
#270000
0#
0-
1,
#272000
0.
1)
#273000
1/
1+
#275000
1#
1&
#276000
0'
#279000
1-
#280000
0#
0/
1.
0,
0*
0(
0$
#284000
00
#285000
1#
#286000
0+
#287000
1/
#288000
0.
0-
0)
1%
#290000
0#
1,
#294000
0/
1*
#295000
1#
#296000
1.
#297000
1-
#299000
1+
1'
#300000
0#
0,
1(
0&
#301000
1/
#304000
0.
1)
#305000
1#
#306000
0-
#308000
0/
0*
#310000
0#
1,
#312000
1.
0+
#315000
1#
1/
1-
1$
#320000
0#
0.
0,
0)
0(
0%
#322000
0/
1*
0'
#324000
0-
#325000
1#
1+
1&
#328000
1.
#329000
1/
#330000
0#
1,
#333000
1-
#335000
1#
#336000
0/
0.
0*
1)
#338000
0+
#340000
0#
0,
1(
#342000
0-
#343000
1/
#344000
1.
#345000
1#
1'
#350000
0#
0/
1,
1*
0&
0$
#351000
1-
1+
#352000
0.
0)
1%
#355000
1!
b11 :
1#
10
#357000
1/
#360000
0#
1.
0-
0,
0(
#364000
0/
0+
0*
#365000
1#
#368000
0.
1)
0'
#369000
1-
#370000
0#
1,
#371000
1/
#375000
1#
1&
#376000
1.
#377000
1+
#378000
0/
0-
1*
#380000
0#
0,
1(
#384000
0.
0)
0%
#385000
1#
1/
1$
#387000
1-
#390000
0#
1,
0+
#391000
1'
#392000
0/
1.
0*
#395000
1#
#396000
0-
#399000
1/
#400000
0#
0.
0,
1)
0(
0&
#403000
1+
#405000
1#
1-
#406000
0/
1*
#408000
1.
#410000
0#
1,
#413000
1/
#414000
0-
0'
#415000
1#
#416000
0.
0+
0)
1%
#420000
0#
0/
0,
0*
1(
0$
#423000
1-
#424000
1.
#425000
1#
1&
#426000
00
#427000
1/
#429000
1+
#430000
0#
1,
#432000
0.
0-
1)
#434000
0/
1*
#435000
1#
#437000
1'
#440000
0#
1.
0,
0(
#441000
1/
1-
#442000
0+
#445000
1#
#448000
0/
0.
0*
0)
0%
#450000
0#
0-
1,
0&
#455000
1#
1/
1+
1$
#456000
1.
#459000
1-
#460000
0#
0,
1(
0'
#462000
0/
1*
#464000
0.
1)
#465000
1#
#468000
0-
0+
#469000
1/
#470000
0#
1,
#472000
1.
#475000
1#
1&
#476000
0/
0*
#477000
1-
#480000
0#
0.
0,
0)
0(
1%
#481000
1+
#483000
1/
1'
#485000
1#
#486000
0-
#488000
1.
#490000
0#
0/
1,
1*
0$
#494000
0+
#495000
1#
1-
#496000
0.
1)
#497000
0!
b11 ;
b100 :
1/
10
#500000
0#
0,
1(
0&
#504000
0/
1.
0-
0*
#505000
1#
#506000
0'
#507000
1+
#510000
0#
1,
#511000
1/
#512000
0.
0)
0%
#513000
1-
#515000
1#
#518000
0/
1*
#520000
0#
1.
0,
0+
0(
#522000
0-
#525000
1#
1/
1&
1$
#528000
0.
1)
#529000
1'
#530000
0#
1,
#531000
1-
#532000
0/
0*
#533000
1+
#535000
1#
#536000
1.
#539000
1/
#540000
0#
0-
0,
1(
#544000
0.
0)
1%
#545000
1#
#546000
0/
0+
1*
#549000
1-
#550000
0#
1,
0&
#552000
1.
0'
#553000
1/
#555000
1#
#558000
0-
#559000
1+
#560000
0#
0/
0.
0,
0*
1)
0(
0$
#565000
1#
#567000
1/
1-
#568000
1.
00
#570000
0#
1,
#572000
0+
#574000
0/
1*
#575000
1#
1'
1&
#576000
0.
0-
0)
0%
#580000
0#
0,
1(
#581000
1/
#584000
1.
#585000
1#
1-
1+
#588000
0/
0*
#590000
0#
1,
#592000
0.
1)
#594000
0-
#595000
1#
1/
1$
#598000
0+
0'
#600000
0#
1.
0,
0(
0&
#602000
0/
1*
#603000
1-
#605000
1#
#608000
0.
0)
1%
#609000
1/
#610000
0#
1,
#611000
1+
#612000
0-
#615000
1#
#616000
0/
1.
0*
#620000
0#
0,
1(
#621000
1-
1'
#623000
1/
#624000
0.
0+
1)
#625000
1#
1&
#630000
0#
0/
0-
1,
1*
0$
#632000
1.
#635000
1#
#637000
1/
1+
#639000
1!
b101 :
1-
10
#640000
0#
0.
0,
0)
0(
0%
#644000
0/
0*
0'
#645000
1#
#648000
1.
0-
#650000
0#
1,
0+
0&
#651000
1/
#655000
1#
#656000
0.
1)
#657000
1-
#658000
0/
1*
#660000
0#
0,
1(
#663000
1+
#664000
1.
#665000
1#
1/
1$
#666000
0-
#667000
1'
#670000
0#
1,
#672000
0/
0.
0*
0)
1%
#675000
1#
1-
1&
#676000
0+
#679000
1/
#680000
0#
1.
0,
0(
#684000
0-
#685000
1#
#686000
0/
1*
#688000
0.
1)
#689000
1+
#690000
0#
1,
0'
#693000
1/
1-
#695000
1#
#696000
1.
#700000
0#
0/
0,
0*
1(
0&
0$
#702000
0-
0+
#704000
0.
0)
0%
#705000
1#
#707000
1/
#710000
0#
1,
00
#711000
1-
#712000
1.
#713000
1'
#714000
0/
1*
#715000
1#
1+
#720000
0#
0.
0-
0,
1)
0(
#721000
1/
#725000
1#
1&
#728000
0/
1.
0+
0*
#729000
1-
#730000
0#
1,
#735000
1#
1/
1$
#736000
0.
0)
0'
1%
#738000
0-
#740000
0#
0,
1(
#741000
1+
#742000
0/
1*
#744000
1.
#745000
1#
#747000
1-
#749000
1/
#750000
0#
1,
0&
#752000
0.
1)
#754000
0+
#755000
1#
#756000
0/
0-
0*
#759000
1'
#760000
0#
1.
0,
0(
#763000
1/
#765000
1#
1-
#767000
1+
#768000
0.
0)
0%
#770000
0#
0/
1,
1*
0$
#774000
0-
#775000
1#
1&
#776000
1.
#777000
1/
#780000
0#
0,
0+
1(
#781000
0!
b111 ;
b110 :
10
#782000
0'
#783000
1-
#784000
0/
0.
0*
1)
#785000
1#
#790000
0#
1,
#791000
1/
#792000
1.
0-
#793000
1+
#795000
1#
#798000
0/
1*
#800000
0#
0.
0,
0)
0(
0&
1%
#801000
1-
#805000
1#
1/
1'
1$
#806000
0+
#808000
1.
#810000
0#
0-
1,
#812000
0/
0*
#815000
1#
#816000
0.
1)
#819000
1/
1-
1+
#820000
0#
0,
1(
#824000
1.
#825000
1#
1&
#826000
0/
1*
#828000
0-
0'
#830000
0#
1,
#832000
0.
0+
0)
0%
#833000
1/
#835000
1#
#837000
1-
#840000
0#
0/
1.
0,
0*
0(
0$
#845000
1#
1+
#846000
0-
#847000
1/
#848000
0.
1)
#850000
0#
1,
0&
#851000
1'
#852000
00
#854000
0/
1*
#855000
1#
1-
#856000
1.
#858000
0+
#860000
0#
0,
1(
#861000
1/
#864000
0.
0-
0)
1%
#865000
1#
#868000
0/
0*
#870000
0#
1,
#871000
1+
#872000
1.
#873000
1-
#874000
0'
#875000
1#
1/
1&
1$
#880000
0#
0.
0,
1)
0(
#882000
0/
0-
1*
#884000
0+
#885000
1#
#888000
1.
#889000
1/
#890000
0#
1,
#891000
1-
#895000
1#
#896000
0/
0.
0*
0)
0%
#897000
1+
1'
#900000
0#
0-
0,
1(
0&
#903000
1/
#904000
1.
#905000
1#
#909000
1-
#910000
0#
0/
1,
0+
1*
0$
#912000
0.
1)
#915000
1#
#917000
1/
#918000
0-
#920000
0#
1.
0,
0(
0'
#923000
1!
b111 :
1+
10
